{
  "Trains": [
    {
      "Id": 0,
      "Path": [
        {
          "$type": "SitronicsTestTask.Node, SitronicsTestTask",
          "Id": 0
        },
        {
          "$type": "SitronicsTestTask.Edge, SitronicsTestTask",
          "Cost": 2,
          "FirstNode": {
            "Id": 2
          },
          "NextNode": {
            "Id": 0
          },
          "Id": 1
        },
        {
          "$type": "SitronicsTestTask.Node, SitronicsTestTask",
          "Id": 2
        },
        {
          "$type": "SitronicsTestTask.Edge, SitronicsTestTask",
          "Cost": 2,
          "FirstNode": {
            "Id": 2
          },
          "NextNode": {
            "Id": 0
          },
          "Id": 1
        },
        {
          "$type": "SitronicsTestTask.Node, SitronicsTestTask",
          "Id": 0
        },
        {
          "$type": "SitronicsTestTask.Edge, SitronicsTestTask",
          "Cost": 3,
          "FirstNode": {
            "Id": 0
          },
          "NextNode": {
            "Id": 1
          },
          "Id": 3
        },
        {
          "$type": "SitronicsTestTask.Node, SitronicsTestTask",
          "Id": 1
        },
        {
          "$type": "SitronicsTestTask.Edge, SitronicsTestTask",
          "Cost": 6,
          "FirstNode": {
            "Id": 1
          },
          "NextNode": {
            "Id": 2
          },
          "Id": 2
        },
        {
          "$type": "SitronicsTestTask.Node, SitronicsTestTask",
          "Id": 2
        },
        {
          "$type": "SitronicsTestTask.Edge, SitronicsTestTask",
          "Cost": 6,
          "FirstNode": {
            "Id": 1
          },
          "NextNode": {
            "Id": 2
          },
          "Id": 2
        },
        {
          "$type": "SitronicsTestTask.Node, SitronicsTestTask",
          "Id": 1
        },
        {
          "$type": "SitronicsTestTask.Edge, SitronicsTestTask",
          "Cost": 6,
          "FirstNode": {
            "Id": 1
          },
          "NextNode": {
            "Id": 2
          },
          "Id": 2
        },
        {
          "$type": "SitronicsTestTask.Node, SitronicsTestTask",
          "Id": 2
        },
        {
          "$type": "SitronicsTestTask.Edge, SitronicsTestTask",
          "Cost": 2,
          "FirstNode": {
            "Id": 2
          },
          "NextNode": {
            "Id": 0
          },
          "Id": 1
        },
        {
          "$type": "SitronicsTestTask.Node, SitronicsTestTask",
          "Id": 0
        },
        {
          "$type": "SitronicsTestTask.Edge, SitronicsTestTask",
          "Cost": 6,
          "FirstNode": {
            "Id": 3
          },
          "NextNode": {
            "Id": 0
          },
          "Id": 0
        },
        {
          "$type": "SitronicsTestTask.Node, SitronicsTestTask",
          "Id": 3
        }
      ],
      "PathString": "Станция № 0 -> Путь № 1 -> Станция № 2 -> Путь № 1 -> Станция № 0 -> Путь № 3 -> Станция № 1 -> Путь № 2 -> Станция № 2 -> Путь № 2 -> Станция № 1 -> Путь № 2 -> Станция № 2 -> Путь № 1 -> Станция № 0 -> Путь № 0 -> Станция № 3 -> "
    },
    {
      "Id": 1,
      "Path": [
        {
          "$type": "SitronicsTestTask.Node, SitronicsTestTask",
          "Id": 3
        },
        {
          "$type": "SitronicsTestTask.Edge, SitronicsTestTask",
          "Cost": 6,
          "FirstNode": {
            "Id": 3
          },
          "NextNode": {
            "Id": 0
          },
          "Id": 0
        },
        {
          "$type": "SitronicsTestTask.Node, SitronicsTestTask",
          "Id": 0
        },
        {
          "$type": "SitronicsTestTask.Edge, SitronicsTestTask",
          "Cost": 2,
          "FirstNode": {
            "Id": 2
          },
          "NextNode": {
            "Id": 0
          },
          "Id": 1
        },
        {
          "$type": "SitronicsTestTask.Node, SitronicsTestTask",
          "Id": 2
        },
        {
          "$type": "SitronicsTestTask.Edge, SitronicsTestTask",
          "Cost": 6,
          "FirstNode": {
            "Id": 1
          },
          "NextNode": {
            "Id": 2
          },
          "Id": 2
        },
        {
          "$type": "SitronicsTestTask.Node, SitronicsTestTask",
          "Id": 1
        },
        {
          "$type": "SitronicsTestTask.Edge, SitronicsTestTask",
          "Cost": 3,
          "FirstNode": {
            "Id": 0
          },
          "NextNode": {
            "Id": 1
          },
          "Id": 3
        },
        {
          "$type": "SitronicsTestTask.Node, SitronicsTestTask",
          "Id": 0
        }
      ],
      "PathString": "Станция № 3 -> Путь № 0 -> Станция № 0 -> Путь № 1 -> Станция № 2 -> Путь № 2 -> Станция № 1 -> Путь № 3 -> Станция № 0 -> "
    }
  ],
  "Nodes": [
    {
      "Id": 0
    },
    {
      "Id": 1
    },
    {
      "Id": 2
    },
    {
      "Id": 3
    }
  ],
  "Edges": [
    {
      "Cost": 6,
      "FirstNode": {
        "Id": 3
      },
      "NextNode": {
        "Id": 0
      },
      "Id": 0
    },
    {
      "Cost": 2,
      "FirstNode": {
        "Id": 2
      },
      "NextNode": {
        "Id": 0
      },
      "Id": 1
    },
    {
      "Cost": 6,
      "FirstNode": {
        "Id": 1
      },
      "NextNode": {
        "Id": 2
      },
      "Id": 2
    },
    {
      "Cost": 3,
      "FirstNode": {
        "Id": 0
      },
      "NextNode": {
        "Id": 1
      },
      "Id": 3
    }
  ]
}